Copyright 1986-2018 Xilinx, Inc. All Rights Reserved.
------------------------------------------------------------------------------------
| Tool Version : Vivado v.2018.2 (lin64) Build 2258646 Thu Jun 14 20:02:38 MDT 2018
| Date         : Fri Jan 11 09:21:24 2019
| Host         : x220 running 64-bit Debian GNU/Linux buster/sid
| Command      : upgrade_ip
| Device       : xc7z007sclg225-1
------------------------------------------------------------------------------------

Upgrade Log for IP 'design_1_mult16BIP_0_0'

1. Summary
----------

SUCCESS in the upgrade of design_1_mult16BIP_0_0 (SIL_VAES:user:mult16BIP:1.0) from (Rev. 2) to (Rev. 3)

