<?xml version="1.0" encoding="UTF-8"?>
<session version="1.0">
<refactoring comment="Rename resource &apos;rndDice/src/helloworld.c&apos; to &apos;rnddice.c&apos;" description="Rename resource &apos;helloworld.c&apos;" flags="7" id="org.eclipse.ltk.core.refactoring.rename.resource" input="src/helloworld.c" name="rnddice.c" stamp="1539350797925" updateReferences="true"/>
</session>