axi4stream_vip_axi4streampc.sv,systemverilog,xilinx_vip,../../../../../../home/sil/.local/xilinx/Vivado/2018.2/data/xilinx_vip/hdl/axi4stream_vip_axi4streampc.sv,incdir="../../../../ex21.srcs/sources_1/bd/design_1/ipshared/ec67/hdl"incdir="../../../../ex21.srcs/sources_1/bd/design_1/ipshared/5bb9/hdl/verilog"incdir="../../../../ex21.srcs/sources_1/bd/design_1/ipshared/70fd/hdl"incdir="../../../../ex21.srcs/sources_1/bd/design_1/ipshared/ec67/hdl"incdir="../../../../ex21.srcs/sources_1/bd/design_1/ipshared/5bb9/hdl/verilog"incdir="../../../../ex21.srcs/sources_1/bd/design_1/ipshared/70fd/hdl"
axi_vip_axi4pc.sv,systemverilog,xilinx_vip,../../../../../../home/sil/.local/xilinx/Vivado/2018.2/data/xilinx_vip/hdl/axi_vip_axi4pc.sv,incdir="../../../../ex21.srcs/sources_1/bd/design_1/ipshared/ec67/hdl"incdir="../../../../ex21.srcs/sources_1/bd/design_1/ipshared/5bb9/hdl/verilog"incdir="../../../../ex21.srcs/sources_1/bd/design_1/ipshared/70fd/hdl"incdir="../../../../ex21.srcs/sources_1/bd/design_1/ipshared/ec67/hdl"incdir="../../../../ex21.srcs/sources_1/bd/design_1/ipshared/5bb9/hdl/verilog"incdir="../../../../ex21.srcs/sources_1/bd/design_1/ipshared/70fd/hdl"
xil_common_vip_pkg.sv,systemverilog,xilinx_vip,../../../../../../home/sil/.local/xilinx/Vivado/2018.2/data/xilinx_vip/hdl/xil_common_vip_pkg.sv,incdir="../../../../ex21.srcs/sources_1/bd/design_1/ipshared/ec67/hdl"incdir="../../../../ex21.srcs/sources_1/bd/design_1/ipshared/5bb9/hdl/verilog"incdir="../../../../ex21.srcs/sources_1/bd/design_1/ipshared/70fd/hdl"incdir="../../../../ex21.srcs/sources_1/bd/design_1/ipshared/ec67/hdl"incdir="../../../../ex21.srcs/sources_1/bd/design_1/ipshared/5bb9/hdl/verilog"incdir="../../../../ex21.srcs/sources_1/bd/design_1/ipshared/70fd/hdl"
axi4stream_vip_pkg.sv,systemverilog,xilinx_vip,../../../../../../home/sil/.local/xilinx/Vivado/2018.2/data/xilinx_vip/hdl/axi4stream_vip_pkg.sv,incdir="../../../../ex21.srcs/sources_1/bd/design_1/ipshared/ec67/hdl"incdir="../../../../ex21.srcs/sources_1/bd/design_1/ipshared/5bb9/hdl/verilog"incdir="../../../../ex21.srcs/sources_1/bd/design_1/ipshared/70fd/hdl"incdir="../../../../ex21.srcs/sources_1/bd/design_1/ipshared/ec67/hdl"incdir="../../../../ex21.srcs/sources_1/bd/design_1/ipshared/5bb9/hdl/verilog"incdir="../../../../ex21.srcs/sources_1/bd/design_1/ipshared/70fd/hdl"
axi_vip_pkg.sv,systemverilog,xilinx_vip,../../../../../../home/sil/.local/xilinx/Vivado/2018.2/data/xilinx_vip/hdl/axi_vip_pkg.sv,incdir="../../../../ex21.srcs/sources_1/bd/design_1/ipshared/ec67/hdl"incdir="../../../../ex21.srcs/sources_1/bd/design_1/ipshared/5bb9/hdl/verilog"incdir="../../../../ex21.srcs/sources_1/bd/design_1/ipshared/70fd/hdl"incdir="../../../../ex21.srcs/sources_1/bd/design_1/ipshared/ec67/hdl"incdir="../../../../ex21.srcs/sources_1/bd/design_1/ipshared/5bb9/hdl/verilog"incdir="../../../../ex21.srcs/sources_1/bd/design_1/ipshared/70fd/hdl"
axi4stream_vip_if.sv,systemverilog,xilinx_vip,../../../../../../home/sil/.local/xilinx/Vivado/2018.2/data/xilinx_vip/hdl/axi4stream_vip_if.sv,incdir="../../../../ex21.srcs/sources_1/bd/design_1/ipshared/ec67/hdl"incdir="../../../../ex21.srcs/sources_1/bd/design_1/ipshared/5bb9/hdl/verilog"incdir="../../../../ex21.srcs/sources_1/bd/design_1/ipshared/70fd/hdl"incdir="../../../../ex21.srcs/sources_1/bd/design_1/ipshared/ec67/hdl"incdir="../../../../ex21.srcs/sources_1/bd/design_1/ipshared/5bb9/hdl/verilog"incdir="../../../../ex21.srcs/sources_1/bd/design_1/ipshared/70fd/hdl"
axi_vip_if.sv,systemverilog,xilinx_vip,../../../../../../home/sil/.local/xilinx/Vivado/2018.2/data/xilinx_vip/hdl/axi_vip_if.sv,incdir="../../../../ex21.srcs/sources_1/bd/design_1/ipshared/ec67/hdl"incdir="../../../../ex21.srcs/sources_1/bd/design_1/ipshared/5bb9/hdl/verilog"incdir="../../../../ex21.srcs/sources_1/bd/design_1/ipshared/70fd/hdl"incdir="../../../../ex21.srcs/sources_1/bd/design_1/ipshared/ec67/hdl"incdir="../../../../ex21.srcs/sources_1/bd/design_1/ipshared/5bb9/hdl/verilog"incdir="../../../../ex21.srcs/sources_1/bd/design_1/ipshared/70fd/hdl"
clk_vip_if.sv,systemverilog,xilinx_vip,../../../../../../home/sil/.local/xilinx/Vivado/2018.2/data/xilinx_vip/hdl/clk_vip_if.sv,incdir="../../../../ex21.srcs/sources_1/bd/design_1/ipshared/ec67/hdl"incdir="../../../../ex21.srcs/sources_1/bd/design_1/ipshared/5bb9/hdl/verilog"incdir="../../../../ex21.srcs/sources_1/bd/design_1/ipshared/70fd/hdl"incdir="../../../../ex21.srcs/sources_1/bd/design_1/ipshared/ec67/hdl"incdir="../../../../ex21.srcs/sources_1/bd/design_1/ipshared/5bb9/hdl/verilog"incdir="../../../../ex21.srcs/sources_1/bd/design_1/ipshared/70fd/hdl"
rst_vip_if.sv,systemverilog,xilinx_vip,../../../../../../home/sil/.local/xilinx/Vivado/2018.2/data/xilinx_vip/hdl/rst_vip_if.sv,incdir="../../../../ex21.srcs/sources_1/bd/design_1/ipshared/ec67/hdl"incdir="../../../../ex21.srcs/sources_1/bd/design_1/ipshared/5bb9/hdl/verilog"incdir="../../../../ex21.srcs/sources_1/bd/design_1/ipshared/70fd/hdl"incdir="../../../../ex21.srcs/sources_1/bd/design_1/ipshared/ec67/hdl"incdir="../../../../ex21.srcs/sources_1/bd/design_1/ipshared/5bb9/hdl/verilog"incdir="../../../../ex21.srcs/sources_1/bd/design_1/ipshared/70fd/hdl"
xpm_cdc.sv,systemverilog,xil_defaultlib,../../../../../../home/sil/.local/xilinx/Vivado/2018.2/data/ip/xpm/xpm_cdc/hdl/xpm_cdc.sv,incdir="../../../../ex21.srcs/sources_1/bd/design_1/ipshared/ec67/hdl"incdir="../../../../ex21.srcs/sources_1/bd/design_1/ipshared/5bb9/hdl/verilog"incdir="../../../../ex21.srcs/sources_1/bd/design_1/ipshared/70fd/hdl"incdir="../../../../ex21.srcs/sources_1/bd/design_1/ipshared/ec67/hdl"incdir="../../../../ex21.srcs/sources_1/bd/design_1/ipshared/5bb9/hdl/verilog"incdir="../../../../ex21.srcs/sources_1/bd/design_1/ipshared/70fd/hdl"
xpm_fifo.sv,systemverilog,xil_defaultlib,../../../../../../home/sil/.local/xilinx/Vivado/2018.2/data/ip/xpm/xpm_fifo/hdl/xpm_fifo.sv,incdir="../../../../ex21.srcs/sources_1/bd/design_1/ipshared/ec67/hdl"incdir="../../../../ex21.srcs/sources_1/bd/design_1/ipshared/5bb9/hdl/verilog"incdir="../../../../ex21.srcs/sources_1/bd/design_1/ipshared/70fd/hdl"incdir="../../../../ex21.srcs/sources_1/bd/design_1/ipshared/ec67/hdl"incdir="../../../../ex21.srcs/sources_1/bd/design_1/ipshared/5bb9/hdl/verilog"incdir="../../../../ex21.srcs/sources_1/bd/design_1/ipshared/70fd/hdl"
xpm_memory.sv,systemverilog,xil_defaultlib,../../../../../../home/sil/.local/xilinx/Vivado/2018.2/data/ip/xpm/xpm_memory/hdl/xpm_memory.sv,incdir="../../../../ex21.srcs/sources_1/bd/design_1/ipshared/ec67/hdl"incdir="../../../../ex21.srcs/sources_1/bd/design_1/ipshared/5bb9/hdl/verilog"incdir="../../../../ex21.srcs/sources_1/bd/design_1/ipshared/70fd/hdl"incdir="../../../../ex21.srcs/sources_1/bd/design_1/ipshared/ec67/hdl"incdir="../../../../ex21.srcs/sources_1/bd/design_1/ipshared/5bb9/hdl/verilog"incdir="../../../../ex21.srcs/sources_1/bd/design_1/ipshared/70fd/hdl"
xpm_VCOMP.vhd,vhdl,xpm,../../../../../../home/sil/.local/xilinx/Vivado/2018.2/data/ip/xpm/xpm_VCOMP.vhd,incdir="../../../../ex21.srcs/sources_1/bd/design_1/ipshared/ec67/hdl"incdir="../../../../ex21.srcs/sources_1/bd/design_1/ipshared/5bb9/hdl/verilog"incdir="../../../../ex21.srcs/sources_1/bd/design_1/ipshared/70fd/hdl"incdir="../../../../ex21.srcs/sources_1/bd/design_1/ipshared/ec67/hdl"incdir="../../../../ex21.srcs/sources_1/bd/design_1/ipshared/5bb9/hdl/verilog"incdir="../../../../ex21.srcs/sources_1/bd/design_1/ipshared/70fd/hdl"
design_1.vhd,vhdl,xil_defaultlib,../../../bd/design_1/sim/design_1.vhd,incdir="../../../../ex21.srcs/sources_1/bd/design_1/ipshared/ec67/hdl"incdir="../../../../ex21.srcs/sources_1/bd/design_1/ipshared/5bb9/hdl/verilog"incdir="../../../../ex21.srcs/sources_1/bd/design_1/ipshared/70fd/hdl"incdir="../../../../ex21.srcs/sources_1/bd/design_1/ipshared/ec67/hdl"incdir="../../../../ex21.srcs/sources_1/bd/design_1/ipshared/5bb9/hdl/verilog"incdir="../../../../ex21.srcs/sources_1/bd/design_1/ipshared/70fd/hdl"
axi_infrastructure_v1_1_vl_rfs.v,verilog,axi_infrastructure_v1_1_0,../../../../ex21.srcs/sources_1/bd/design_1/ipshared/ec67/hdl/axi_infrastructure_v1_1_vl_rfs.v,incdir="../../../../ex21.srcs/sources_1/bd/design_1/ipshared/ec67/hdl"incdir="../../../../ex21.srcs/sources_1/bd/design_1/ipshared/5bb9/hdl/verilog"incdir="../../../../ex21.srcs/sources_1/bd/design_1/ipshared/70fd/hdl"incdir="../../../../ex21.srcs/sources_1/bd/design_1/ipshared/ec67/hdl"incdir="../../../../ex21.srcs/sources_1/bd/design_1/ipshared/5bb9/hdl/verilog"incdir="../../../../ex21.srcs/sources_1/bd/design_1/ipshared/70fd/hdl"
sc_util_v1_0_vl_rfs.sv,systemverilog,smartconnect_v1_0,../../../../ex21.srcs/sources_1/bd/design_1/ipshared/5bb9/hdl/sc_util_v1_0_vl_rfs.sv,incdir="../../../../ex21.srcs/sources_1/bd/design_1/ipshared/ec67/hdl"incdir="../../../../ex21.srcs/sources_1/bd/design_1/ipshared/5bb9/hdl/verilog"incdir="../../../../ex21.srcs/sources_1/bd/design_1/ipshared/70fd/hdl"incdir="../../../../ex21.srcs/sources_1/bd/design_1/ipshared/ec67/hdl"incdir="../../../../ex21.srcs/sources_1/bd/design_1/ipshared/5bb9/hdl/verilog"incdir="../../../../ex21.srcs/sources_1/bd/design_1/ipshared/70fd/hdl"
axi_protocol_checker_v2_0_vl_rfs.sv,systemverilog,axi_protocol_checker_v2_0_3,../../../../ex21.srcs/sources_1/bd/design_1/ipshared/03a9/hdl/axi_protocol_checker_v2_0_vl_rfs.sv,incdir="../../../../ex21.srcs/sources_1/bd/design_1/ipshared/ec67/hdl"incdir="../../../../ex21.srcs/sources_1/bd/design_1/ipshared/5bb9/hdl/verilog"incdir="../../../../ex21.srcs/sources_1/bd/design_1/ipshared/70fd/hdl"incdir="../../../../ex21.srcs/sources_1/bd/design_1/ipshared/ec67/hdl"incdir="../../../../ex21.srcs/sources_1/bd/design_1/ipshared/5bb9/hdl/verilog"incdir="../../../../ex21.srcs/sources_1/bd/design_1/ipshared/70fd/hdl"
axi_vip_v1_1_vl_rfs.sv,systemverilog,axi_vip_v1_1_3,../../../../ex21.srcs/sources_1/bd/design_1/ipshared/b9a8/hdl/axi_vip_v1_1_vl_rfs.sv,incdir="../../../../ex21.srcs/sources_1/bd/design_1/ipshared/ec67/hdl"incdir="../../../../ex21.srcs/sources_1/bd/design_1/ipshared/5bb9/hdl/verilog"incdir="../../../../ex21.srcs/sources_1/bd/design_1/ipshared/70fd/hdl"incdir="../../../../ex21.srcs/sources_1/bd/design_1/ipshared/ec67/hdl"incdir="../../../../ex21.srcs/sources_1/bd/design_1/ipshared/5bb9/hdl/verilog"incdir="../../../../ex21.srcs/sources_1/bd/design_1/ipshared/70fd/hdl"
processing_system7_vip_v1_0_vl_rfs.sv,systemverilog,processing_system7_vip_v1_0_5,../../../../ex21.srcs/sources_1/bd/design_1/ipshared/70fd/hdl/processing_system7_vip_v1_0_vl_rfs.sv,incdir="../../../../ex21.srcs/sources_1/bd/design_1/ipshared/ec67/hdl"incdir="../../../../ex21.srcs/sources_1/bd/design_1/ipshared/5bb9/hdl/verilog"incdir="../../../../ex21.srcs/sources_1/bd/design_1/ipshared/70fd/hdl"incdir="../../../../ex21.srcs/sources_1/bd/design_1/ipshared/ec67/hdl"incdir="../../../../ex21.srcs/sources_1/bd/design_1/ipshared/5bb9/hdl/verilog"incdir="../../../../ex21.srcs/sources_1/bd/design_1/ipshared/70fd/hdl"
design_1_processing_system7_0_0.v,verilog,xil_defaultlib,../../../bd/design_1/ip/design_1_processing_system7_0_0/sim/design_1_processing_system7_0_0.v,incdir="../../../../ex21.srcs/sources_1/bd/design_1/ipshared/ec67/hdl"incdir="../../../../ex21.srcs/sources_1/bd/design_1/ipshared/5bb9/hdl/verilog"incdir="../../../../ex21.srcs/sources_1/bd/design_1/ipshared/70fd/hdl"incdir="../../../../ex21.srcs/sources_1/bd/design_1/ipshared/ec67/hdl"incdir="../../../../ex21.srcs/sources_1/bd/design_1/ipshared/5bb9/hdl/verilog"incdir="../../../../ex21.srcs/sources_1/bd/design_1/ipshared/70fd/hdl"
rotary_decoder_v1_0_S00_AXI.vhd,vhdl,xil_defaultlib,../../../bd/design_1/ipshared/1fde/hdl/rotary_decoder_v1_0_S00_AXI.vhd,incdir="../../../../ex21.srcs/sources_1/bd/design_1/ipshared/ec67/hdl"incdir="../../../../ex21.srcs/sources_1/bd/design_1/ipshared/5bb9/hdl/verilog"incdir="../../../../ex21.srcs/sources_1/bd/design_1/ipshared/70fd/hdl"incdir="../../../../ex21.srcs/sources_1/bd/design_1/ipshared/ec67/hdl"incdir="../../../../ex21.srcs/sources_1/bd/design_1/ipshared/5bb9/hdl/verilog"incdir="../../../../ex21.srcs/sources_1/bd/design_1/ipshared/70fd/hdl"
debouncer.vhd,vhdl,xil_defaultlib,../../../bd/design_1/ex21/Rotary-encoder-VHDL-design-master/src/debouncer.vhd,incdir="../../../../ex21.srcs/sources_1/bd/design_1/ipshared/ec67/hdl"incdir="../../../../ex21.srcs/sources_1/bd/design_1/ipshared/5bb9/hdl/verilog"incdir="../../../../ex21.srcs/sources_1/bd/design_1/ipshared/70fd/hdl"incdir="../../../../ex21.srcs/sources_1/bd/design_1/ipshared/ec67/hdl"incdir="../../../../ex21.srcs/sources_1/bd/design_1/ipshared/5bb9/hdl/verilog"incdir="../../../../ex21.srcs/sources_1/bd/design_1/ipshared/70fd/hdl"
x1enc2.vhd,vhdl,xil_defaultlib,../../../bd/design_1/ex21/Rotary-encoder-VHDL-design-master/src/x1enc2.vhd,incdir="../../../../ex21.srcs/sources_1/bd/design_1/ipshared/ec67/hdl"incdir="../../../../ex21.srcs/sources_1/bd/design_1/ipshared/5bb9/hdl/verilog"incdir="../../../../ex21.srcs/sources_1/bd/design_1/ipshared/70fd/hdl"incdir="../../../../ex21.srcs/sources_1/bd/design_1/ipshared/ec67/hdl"incdir="../../../../ex21.srcs/sources_1/bd/design_1/ipshared/5bb9/hdl/verilog"incdir="../../../../ex21.srcs/sources_1/bd/design_1/ipshared/70fd/hdl"
rotary_top.vhd,vhdl,xil_defaultlib,../../../bd/design_1/ex21/Rotary-encoder-VHDL-design-master/src/rotary_top.vhd,incdir="../../../../ex21.srcs/sources_1/bd/design_1/ipshared/ec67/hdl"incdir="../../../../ex21.srcs/sources_1/bd/design_1/ipshared/5bb9/hdl/verilog"incdir="../../../../ex21.srcs/sources_1/bd/design_1/ipshared/70fd/hdl"incdir="../../../../ex21.srcs/sources_1/bd/design_1/ipshared/ec67/hdl"incdir="../../../../ex21.srcs/sources_1/bd/design_1/ipshared/5bb9/hdl/verilog"incdir="../../../../ex21.srcs/sources_1/bd/design_1/ipshared/70fd/hdl"
rotary_decoder_v1_0.vhd,vhdl,xil_defaultlib,../../../bd/design_1/ipshared/1fde/hdl/rotary_decoder_v1_0.vhd,incdir="../../../../ex21.srcs/sources_1/bd/design_1/ipshared/ec67/hdl"incdir="../../../../ex21.srcs/sources_1/bd/design_1/ipshared/5bb9/hdl/verilog"incdir="../../../../ex21.srcs/sources_1/bd/design_1/ipshared/70fd/hdl"incdir="../../../../ex21.srcs/sources_1/bd/design_1/ipshared/ec67/hdl"incdir="../../../../ex21.srcs/sources_1/bd/design_1/ipshared/5bb9/hdl/verilog"incdir="../../../../ex21.srcs/sources_1/bd/design_1/ipshared/70fd/hdl"
design_1_rotary_decoder_0_0.vhd,vhdl,xil_defaultlib,../../../bd/design_1/ip/design_1_rotary_decoder_0_0/sim/design_1_rotary_decoder_0_0.vhd,incdir="../../../../ex21.srcs/sources_1/bd/design_1/ipshared/ec67/hdl"incdir="../../../../ex21.srcs/sources_1/bd/design_1/ipshared/5bb9/hdl/verilog"incdir="../../../../ex21.srcs/sources_1/bd/design_1/ipshared/70fd/hdl"incdir="../../../../ex21.srcs/sources_1/bd/design_1/ipshared/ec67/hdl"incdir="../../../../ex21.srcs/sources_1/bd/design_1/ipshared/5bb9/hdl/verilog"incdir="../../../../ex21.srcs/sources_1/bd/design_1/ipshared/70fd/hdl"
lib_cdc_v1_0_rfs.vhd,vhdl,lib_cdc_v1_0_2,../../../../ex21.srcs/sources_1/bd/design_1/ipshared/ef1e/hdl/lib_cdc_v1_0_rfs.vhd,incdir="../../../../ex21.srcs/sources_1/bd/design_1/ipshared/ec67/hdl"incdir="../../../../ex21.srcs/sources_1/bd/design_1/ipshared/5bb9/hdl/verilog"incdir="../../../../ex21.srcs/sources_1/bd/design_1/ipshared/70fd/hdl"incdir="../../../../ex21.srcs/sources_1/bd/design_1/ipshared/ec67/hdl"incdir="../../../../ex21.srcs/sources_1/bd/design_1/ipshared/5bb9/hdl/verilog"incdir="../../../../ex21.srcs/sources_1/bd/design_1/ipshared/70fd/hdl"
proc_sys_reset_v5_0_vh_rfs.vhd,vhdl,proc_sys_reset_v5_0_12,../../../../ex21.srcs/sources_1/bd/design_1/ipshared/f86a/hdl/proc_sys_reset_v5_0_vh_rfs.vhd,incdir="../../../../ex21.srcs/sources_1/bd/design_1/ipshared/ec67/hdl"incdir="../../../../ex21.srcs/sources_1/bd/design_1/ipshared/5bb9/hdl/verilog"incdir="../../../../ex21.srcs/sources_1/bd/design_1/ipshared/70fd/hdl"incdir="../../../../ex21.srcs/sources_1/bd/design_1/ipshared/ec67/hdl"incdir="../../../../ex21.srcs/sources_1/bd/design_1/ipshared/5bb9/hdl/verilog"incdir="../../../../ex21.srcs/sources_1/bd/design_1/ipshared/70fd/hdl"
design_1_rst_ps7_0_50M_0.vhd,vhdl,xil_defaultlib,../../../bd/design_1/ip/design_1_rst_ps7_0_50M_0/sim/design_1_rst_ps7_0_50M_0.vhd,incdir="../../../../ex21.srcs/sources_1/bd/design_1/ipshared/ec67/hdl"incdir="../../../../ex21.srcs/sources_1/bd/design_1/ipshared/5bb9/hdl/verilog"incdir="../../../../ex21.srcs/sources_1/bd/design_1/ipshared/70fd/hdl"incdir="../../../../ex21.srcs/sources_1/bd/design_1/ipshared/ec67/hdl"incdir="../../../../ex21.srcs/sources_1/bd/design_1/ipshared/5bb9/hdl/verilog"incdir="../../../../ex21.srcs/sources_1/bd/design_1/ipshared/70fd/hdl"
generic_baseblocks_v2_1_vl_rfs.v,verilog,generic_baseblocks_v2_1_0,../../../../ex21.srcs/sources_1/bd/design_1/ipshared/b752/hdl/generic_baseblocks_v2_1_vl_rfs.v,incdir="../../../../ex21.srcs/sources_1/bd/design_1/ipshared/ec67/hdl"incdir="../../../../ex21.srcs/sources_1/bd/design_1/ipshared/5bb9/hdl/verilog"incdir="../../../../ex21.srcs/sources_1/bd/design_1/ipshared/70fd/hdl"incdir="../../../../ex21.srcs/sources_1/bd/design_1/ipshared/ec67/hdl"incdir="../../../../ex21.srcs/sources_1/bd/design_1/ipshared/5bb9/hdl/verilog"incdir="../../../../ex21.srcs/sources_1/bd/design_1/ipshared/70fd/hdl"
fifo_generator_vlog_beh.v,verilog,fifo_generator_v13_2_2,../../../../ex21.srcs/sources_1/bd/design_1/ipshared/7aff/simulation/fifo_generator_vlog_beh.v,incdir="../../../../ex21.srcs/sources_1/bd/design_1/ipshared/ec67/hdl"incdir="../../../../ex21.srcs/sources_1/bd/design_1/ipshared/5bb9/hdl/verilog"incdir="../../../../ex21.srcs/sources_1/bd/design_1/ipshared/70fd/hdl"incdir="../../../../ex21.srcs/sources_1/bd/design_1/ipshared/ec67/hdl"incdir="../../../../ex21.srcs/sources_1/bd/design_1/ipshared/5bb9/hdl/verilog"incdir="../../../../ex21.srcs/sources_1/bd/design_1/ipshared/70fd/hdl"
fifo_generator_v13_2_rfs.vhd,vhdl,fifo_generator_v13_2_2,../../../../ex21.srcs/sources_1/bd/design_1/ipshared/7aff/hdl/fifo_generator_v13_2_rfs.vhd,incdir="../../../../ex21.srcs/sources_1/bd/design_1/ipshared/ec67/hdl"incdir="../../../../ex21.srcs/sources_1/bd/design_1/ipshared/5bb9/hdl/verilog"incdir="../../../../ex21.srcs/sources_1/bd/design_1/ipshared/70fd/hdl"incdir="../../../../ex21.srcs/sources_1/bd/design_1/ipshared/ec67/hdl"incdir="../../../../ex21.srcs/sources_1/bd/design_1/ipshared/5bb9/hdl/verilog"incdir="../../../../ex21.srcs/sources_1/bd/design_1/ipshared/70fd/hdl"
fifo_generator_v13_2_rfs.v,verilog,fifo_generator_v13_2_2,../../../../ex21.srcs/sources_1/bd/design_1/ipshared/7aff/hdl/fifo_generator_v13_2_rfs.v,incdir="../../../../ex21.srcs/sources_1/bd/design_1/ipshared/ec67/hdl"incdir="../../../../ex21.srcs/sources_1/bd/design_1/ipshared/5bb9/hdl/verilog"incdir="../../../../ex21.srcs/sources_1/bd/design_1/ipshared/70fd/hdl"incdir="../../../../ex21.srcs/sources_1/bd/design_1/ipshared/ec67/hdl"incdir="../../../../ex21.srcs/sources_1/bd/design_1/ipshared/5bb9/hdl/verilog"incdir="../../../../ex21.srcs/sources_1/bd/design_1/ipshared/70fd/hdl"
axi_data_fifo_v2_1_vl_rfs.v,verilog,axi_data_fifo_v2_1_16,../../../../ex21.srcs/sources_1/bd/design_1/ipshared/247d/hdl/axi_data_fifo_v2_1_vl_rfs.v,incdir="../../../../ex21.srcs/sources_1/bd/design_1/ipshared/ec67/hdl"incdir="../../../../ex21.srcs/sources_1/bd/design_1/ipshared/5bb9/hdl/verilog"incdir="../../../../ex21.srcs/sources_1/bd/design_1/ipshared/70fd/hdl"incdir="../../../../ex21.srcs/sources_1/bd/design_1/ipshared/ec67/hdl"incdir="../../../../ex21.srcs/sources_1/bd/design_1/ipshared/5bb9/hdl/verilog"incdir="../../../../ex21.srcs/sources_1/bd/design_1/ipshared/70fd/hdl"
axi_register_slice_v2_1_vl_rfs.v,verilog,axi_register_slice_v2_1_17,../../../../ex21.srcs/sources_1/bd/design_1/ipshared/6020/hdl/axi_register_slice_v2_1_vl_rfs.v,incdir="../../../../ex21.srcs/sources_1/bd/design_1/ipshared/ec67/hdl"incdir="../../../../ex21.srcs/sources_1/bd/design_1/ipshared/5bb9/hdl/verilog"incdir="../../../../ex21.srcs/sources_1/bd/design_1/ipshared/70fd/hdl"incdir="../../../../ex21.srcs/sources_1/bd/design_1/ipshared/ec67/hdl"incdir="../../../../ex21.srcs/sources_1/bd/design_1/ipshared/5bb9/hdl/verilog"incdir="../../../../ex21.srcs/sources_1/bd/design_1/ipshared/70fd/hdl"
axi_protocol_converter_v2_1_vl_rfs.v,verilog,axi_protocol_converter_v2_1_17,../../../../ex21.srcs/sources_1/bd/design_1/ipshared/ccfb/hdl/axi_protocol_converter_v2_1_vl_rfs.v,incdir="../../../../ex21.srcs/sources_1/bd/design_1/ipshared/ec67/hdl"incdir="../../../../ex21.srcs/sources_1/bd/design_1/ipshared/5bb9/hdl/verilog"incdir="../../../../ex21.srcs/sources_1/bd/design_1/ipshared/70fd/hdl"incdir="../../../../ex21.srcs/sources_1/bd/design_1/ipshared/ec67/hdl"incdir="../../../../ex21.srcs/sources_1/bd/design_1/ipshared/5bb9/hdl/verilog"incdir="../../../../ex21.srcs/sources_1/bd/design_1/ipshared/70fd/hdl"
design_1_auto_pc_0.v,verilog,xil_defaultlib,../../../bd/design_1/ip/design_1_auto_pc_0/sim/design_1_auto_pc_0.v,incdir="../../../../ex21.srcs/sources_1/bd/design_1/ipshared/ec67/hdl"incdir="../../../../ex21.srcs/sources_1/bd/design_1/ipshared/5bb9/hdl/verilog"incdir="../../../../ex21.srcs/sources_1/bd/design_1/ipshared/70fd/hdl"incdir="../../../../ex21.srcs/sources_1/bd/design_1/ipshared/ec67/hdl"incdir="../../../../ex21.srcs/sources_1/bd/design_1/ipshared/5bb9/hdl/verilog"incdir="../../../../ex21.srcs/sources_1/bd/design_1/ipshared/70fd/hdl"
glbl.v,Verilog,xil_defaultlib,glbl.v
