Design Route Status
                                               :      # nets :
   ------------------------------------------- : ----------- :
   # of logical nets.......................... :        2773 :
       # of nets not needing routing.......... :        1733 :
           # of internally routed nets........ :        1733 :
       # of routable nets..................... :        1040 :
           # of fully routed nets............. :        1040 :
       # of nets with routing errors.......... :           0 :
   ------------------------------------------- : ----------- :

